Waf: Entering directory `/home/nagib/Documents/gitlab/ns3/build'
[1349/1413] Compiling src/lorawan/examples/complete-network-example.cc
[1402/1413] Linking build/src/lorawan/examples/ns3-dev-complete-network-example-debug
Waf: Leaving directory `/home/nagib/Documents/gitlab/ns3/build'
Build commands will be stored in build/compile_commands.json
'build' finished successfully (6.555s)
1000.000000 1000.000000
1000.000000 999.000000
1000.000000 997.000000
1000.000000 992.000000
1000.000000 998.000000
1000.000000 1000.000000
1000.000000 1000.000000
1000.000000 1000.000000
1000.000000 997.000000
1000.000000 1000.000000
1000.000000 998.000000
1000.000000 995.000000
1000.000000 999.000000
1000.000000 998.000000
1000.000000 1000.000000
1000.000000 1000.000000
1000.000000 996.000000
1000.000000 997.000000
1000.000000 999.000000
1000.000000 999.000000
1000.000000 1000.000000
1000.000000 996.000000
1000.000000 996.000000
1000.000000 1000.000000
1000.000000 1000.000000
1000.000000 999.000000
1000.000000 1000.000000
1000.000000 1000.000000
1000.000000 1000.000000
1000.000000 999.000000
1000.000000 999.000000
1000.000000 1000.000000
1000.000000 1000.000000
Waf: Entering directory `/home/nagib/Documents/gitlab/ns3/build'
Waf: Leaving directory `/home/nagib/Documents/gitlab/ns3/build'
Build commands will be stored in build/compile_commands.json
'build' finished successfully (1.035s)
[01;31mInterrupted[0m 
Waf: Entering directory `/home/nagib/Documents/gitlab/ns3/build'
Waf: Leaving directory `/home/nagib/Documents/gitlab/ns3/build'
Build commands will be stored in build/compile_commands.json
'build' finished successfully (1.057s)
1000.000000 954.000000
1000.000000 942.000000
1000.000000 956.000000
1000.000000 961.000000
1000.000000 946.000000
1000.000000 961.000000
1000.000000 953.000000
1000.000000 955.000000
1000.000000 958.000000
1000.000000 959.000000
1000.000000 952.000000
Waf: Entering directory `/home/nagib/Documents/gitlab/ns3/build'
Waf: Leaving directory `/home/nagib/Documents/gitlab/ns3/build'
Build commands will be stored in build/compile_commands.json
'build' finished successfully (4.698s)
1000.000000 954.000000
1000.000000 942.000000
1000.000000 956.000000
1000.000000 961.000000
1000.000000 946.000000
1000.000000 961.000000
1000.000000 953.000000
1000.000000 955.000000
1000.000000 958.000000
1000.000000 959.000000
1000.000000 952.000000
1000.000000 955.000000
1000.000000 954.000000
1000.000000 950.000000
1000.000000 950.000000
1000.000000 954.000000
1000.000000 948.000000
1000.000000 964.000000
1000.000000 940.000000
1000.000000 954.000000
1000.000000 960.000000
1000.000000 959.000000
1000.000000 951.000000
1000.000000 950.000000
