6457.905396207808	5538.584752495597
4583.490769607699	2651.097457389494
1593.7760242223364	1693.8555530264557
3515.0658280298685	8599.810835744003
8352.849541414123	1884.38977022469
8248.024230145515	8096.475299695085
1827.2482992735038	5490.1274996584225
