6147.799220897487	1849.3243199984329
3476.824193311968	7831.784870677394
3683.437890018641	1290.9993482254529
5697.383645195207	9198.099356099498
5148.080977021627	4271.913213123426
1050.94969456289	3019.9500865502637
1250.1901189049283	923.8980841515545
8144.6804883660625	3453.9993038799166
1186.0685820384313	9055.9361725385
941.3290124288861	6223.659744086501
8446.05465046614	982.3026801823992
2658.468065550705	4972.5789434893
6474.700372850917	6568.2050881916975
8560.757704189256	8674.41884552358
8829.433756303133	5619.420702432549
