8596.947233022936	5800.351576497892
8930.38157064602	3320.3865240002747
5405.61085080284	1022.3486575637365
3249.492733678446	1094.780887241862
6465.764206552521	4104.324690332263
1064.9833463361695	7278.652535934519
1232.773783769702	4696.842863789289
3851.29639433856	3561.734868527699
4471.921739482522	8720.645063757318
8788.644122610973	995.5714805688341
1023.2199029316332	1637.843142856963
1568.191341440436	9164.568964646229
6677.010990373219	7641.198616109775
3774.4528994123634	6252.174400635476
9065.891735908222	8920.979791844744
