3535.074868717956	8238.394488839873
3348.133679886828	3034.043373803207
6326.02543186639	8670.46323245905
3618.98928721933	5491.271340910758
9084.89183471019	6065.422053796646
1048.4640849570467	6547.893210071446
1583.0772584759065	972.5390940176874
6425.678633929692	6028.752450121151
8086.838887875684	1012.6521596202749
6231.356373877359	3141.334975558261
4959.072906051221	777.0547336419819
902.8185461866251	9089.332302811586
1053.0187347851008	3726.7418233711905
8920.254118041443	3329.7665319394196
8901.38565109345	8807.407721134952
