8642.163720416404	6555.330064522743
8808.654212708947	1274.0522269532328
5272.0024365980535	8584.795604541732
6219.575861601345	2095.09625717546
8591.284241042571	3898.267031967331
4133.953381150907	793.3269700720036
5644.5378392489265	5791.87226337363
1110.4129952152775	4195.0801386503545
8640.431611129165	9087.629260437137
1512.8485756123625	8869.028269019898
2044.3887594276146	6636.18725737079
1263.8501608477186	1230.9959935571387
3751.0647637708416	3530.910424243999
