5324.76148641949	9142.887198516353
8864.555913667356	9080.879724044848
3482.409039935937	3819.6709101198066
8733.390945390418	1387.3179178355192
4287.240931143346	6507.319578044511
9018.583045803001	4274.729020221826
962.6556086984667	1671.0491545691305
6106.8842288420665	1114.991566272964
1670.813082210649	8722.43386985059
6387.852645595346	3657.5604996062157
3438.1018352391843	1185.6451549701362
1143.6256061004988	5519.081855533343
7745.005968948544	6661.735417396197
