7854	6582
6192	1445
1102	7444
8179	7462
5673	8994
5486	386
4590	7432
6712	2765
7242	2582
6118	2352
1711	1495
5678	609
2501	2201
3551	5638
8718	9435
4747	7679
2375	3542
3954	5613
6110	109
7706	9737
3131	7689
2901	1877
3509	8264
7040	9922
2379	4494
8246	3969
1002	1860
2523	4560
4872	4155
3765	5915
7993	6168
8742	8456
6868	2418
69	3831
9774	3076
1516	3029
9554	8429
2079	7855
3616	2943
4432	6304
6079	8256
2984	6286
1725	8586
192	2597
8864	9428
1768	9050
575	7031
2265	7214
113	4618
6921	7299
5253	8799
4337	3560
1850	4784
217	2330
6151	1596
2322	5046
7241	1562
5027	665
327	2694
4325	252
2967	9599
1947	4472
5691	7902
4107	8836
1910	5289
3925	7445
3445	3289
9580	1120
4973	3153
2702	6476
3253	4601
9619	7004
9726	5266
8220	1512
2584	785
6635	5590
8970	1007
3842	7436
842	3076
2296	1131
9828	2161
7148	3607
2038	1862
7308	2766
8997	6273
4626	2581
2183	1602
2099	1696
164	6059
8132	4571
1957	1279
631	8742
2407	7965
8733	2390
864	6886
5259	9008
3168	1144
3434	5525
8092	4544
4758	334
7695	5318
423	5234
9968	624
9903	599
6010	637
3523	9435
3353	2700
5874	3941
3497	1270
4425	5486
6422	1501
4881	6425
3105	88
3997	9981
4907	982
2558	9871
6862	4328
2854	2107
6462	4295
8064	5113
2319	7778
2811	2451
4204	2290
6167	8824
3775	1022
591	8272
1053	8341
4948	7946
2971	4898
9489	2365
7989	3436
538	3473
9994	1141
8645	7694
3135	8300
5424	337
1281	4504
2217	5230
4807	9250
480	6769
4577	798
2890	1431
8957	8214
2861	3256
49	9574
6368	1124
952	3986
7932	1007
732	3873
5194	6102
3168	2591
7798	1927
9058	2781
6936	2538
8375	9534
8555	7236
799	9741
306	4887
4909	5949
1243	1319
7371	1647
9558	1350
182	9390
4676	6965
9496	1949
1798	4190
6644	16
7132	6706
5227	6692
2367	6713
6396	3363
21	940
4397	560
4120	4643
2793	7120
7073	5482
7351	7539
3946	642
7818	5580
270	2811
2124	6926
5714	3387
5146	912
4721	9174
8493	6122
3564	1719
411	9921
7894	6493
4814	3103
9939	3235
6276	8085
6649	4705
1485	7788
4329	7807
4862	34
4313	7446
6854	6722
2302	8196
7646	9636
3270	1989
13	5058
3449	144
3737	8884
8267	9804
2235	2322
4037	7949
1915	1493
2573	1879
8483	9764
9160	7362
5635	46
244	8890
2465	9039
4656	586
6898	8106
6111	2042
3413	4565
8792	9275
9172	5820
4564	6627
9713	3775
943	4973
6507	8084
7695	5884
8985	906
3753	6526
4235	764
4834	6658
1299	5041
542	5077
8631	6085
2466	9551
8186	5402
4010	6632
631	6920
3729	6921
2548	624
7545	9911
817	6715
4968	8230
2333	9974
1697	6846
5367	6938
7210	1826
25	5657
406	1265
3016	1820
884	1936
4621	5968
2199	5759
6911	6099
1220	5074
6792	1344
8168	7469
9124	5625
2937	216
9971	6325
3498	9454
4352	9059
3381	4464
9363	8665
5038	9211
4174	1699
5861	4333
7747	1037
5505	9364
124	7447
1202	472
2966	8838
6346	6262
2581	4483
6244	6834
2444	1139
6430	2207
5474	319
977	3782
1999	5222
5210	776
1755	9833
6026	3866
101	5741
6091	9187
2675	4768
2299	5949
9844	5768
6269	8155
691	7009
1406	146
6383	1704
2877	2198
1203	4800
9627	1398
1954	8760
576	1400
9114	4798
2416	7228
8144	3461
6134	8682
3863	3800
2468	6683
4539	6471
2075	8348
8551	4560
1380	9465
1392	6431
2845	510
6946	6353
4165	7042
3098	2534
8093	3206
6183	2032
4082	9010
6100	6945
9372	1143
7403	3533
4385	6814
1476	7948
9522	708
1099	3681
9502	2309
3952	133
3126	287
5964	6732
4045	6650
6144	6544
4902	5207
7153	9344
4434	3509
2793	3081
484	5050
3026	6480
859	6173
4635	5822
2961	8345
9543	9247
3721	3091
7434	7154
8353	991
3268	6441
804	7438
1401	899
6532	5459
4281	9419
8140	4250
9276	2137
7608	9722
1613	7596
7609	9138
7400	870
9660	9274
4750	4786
6993	4084
6006	6693
7289	4150
9342	4591
3723	7925
1482	9193
9017	554
8505	132
1693	926
5363	4377
5928	5413
7612	982
7425	3854
4338	9156
9476	8123
3383	7308
6674	2166
5507	4820
4703	482
252	9601
5631	9709
8825	4812
5441	8410
169	1598
2137	3582
4184	9190
8646	8426
9420	1888
1031	5472
2014	3677
3649	9776
4864	6660
6884	5323
7425	1176
9136	7664
2252	4361
5629	575
2381	6373
8227	7927
4505	7776
6244	7
1722	8047
5083	3491
2214	9793
3636	1778
1164	4721
162	4706
2409	5909
3045	7692
1251	9738
2024	3398
1664	4713
1032	2984
1378	8426
9094	4963
5535	8263
471	5339
1521	1170
5469	2968
9556	9034
4607	9430
1141	4724
6328	1449
5331	1576
9690	8464
6038	6782
6939	453
9452	9690
1320	9020
9726	6947
4367	9628
8263	9924
2304	1803
991	997
3572	307
2512	2306
1834	3633
3244	8174
4309	917
4494	9993
637	1442
9677	7283
7861	5743
1292	1610
779	4696
8609	6916
6966	3319
6673	5283
6228	6131
9166	3853
7525	8797
3364	5431
5254	2371
8035	9548
6885	9928
1869	1734
3999	6102
9325	680
2369	9362
1564	7992
7650	2980
4077	4647
3801	4731
2181	9197
7447	6757
2662	9553
1272	3364
9262	8550
7880	99
7768	955
8619	6787
1488	7905
1385	2064
8509	751
4214	8836
2810	4421
5760	725
7036	9918
6329	3173
8131	9130
1085	8445
9751	8802
4229	333
9603	7616
3494	9510
1021	7296
7982	1945
4788	901
466	8050
8232	6788
9615	4800
5045	7796
1496	2992
4169	8883
6455	8296
536	4020
8	9629
2161	81
2926	6564
3192	7478
5393	2991
4134	7329
3054	5504
5740	6772
9181	3489
9250	9688
5629	6431
3934	4890
4766	5676
7310	1183
3716	4894
612	6532
4567	5955
3580	8281
9862	159
8746	8807
9000	929
6252	1829
5035	6659
7492	3118
9945	9872
8618	6011
1368	3958
9692	6876
787	1516
6308	7262
5841	7541
8804	7596
9621	311
698	6300
9240	5700
6523	7846
5428	3081
5437	3226
8312	2457
2655	1973
700	9752
1185	228
8699	2091
5661	675
6130	822
1251	6561
5351	8551
9595	9419
1835	8786
7622	3925
1473	1180
1932	4141
7060	904
1424	7100
2506	1181
9134	8091
5399	8956
3287	5884
2863	8967
3220	1438
7160	7482
7380	4532
8399	1822
993	6405
7375	8853
9896	3737
197	5840
6533	8035
9573	3597
9095	5495
2004	3763
5116	1949
4950	2342
7193	9616
2904	6685
9215	9566
4433	2830
1084	3356
3324	9422
6927	6912
2210	9106
3446	4807
4661	4414
9519	7698
7844	6111
3536	7247
2282	8205
6484	9902
8733	1825
6386	5578
5993	9969
2230	5949
1611	1019
921	9951
1092	7585
2280	6304
1588	3560
7796	17
8895	5135
2008	1276
548	7539
1801	2871
3923	8189
6693	8907
7570	778
3535	1739
8376	6268
8272	7299
8175	9923
8093	5073
6306	4624
3232	4558
739	8376
5086	9402
3386	4364
6293	5741
4333	1563
5982	1654
6716	6918
99	3174
764	8009
4726	3737
8144	4823
5375	9951
5503	4856
3339	5862
8496	4222
3870	8090
8511	8886
3380	7553
2717	978
2715	4526
5383	3871
9424	1079
4910	2233
4881	9717
9989	3186
253	5067
154	1243
9469	8095
6984	6100
7143	3369
8844	8841
3969	383
3310	2249
1281	1679
2840	4675
808	3358
1397	9137
7585	5364
674	2486
2664	8362
8950	7206
8925	6045
502	3701
3386	2415
7742	6057
6113	2935
5422	6640
9832	1608
4977	9144
6238	5104
6701	811
3281	5674
8400	3701
3287	7592
9570	182
3682	564
2833	3903
33	437
1182	8382
7412	2278
9508	7442
9546	7264
4427	3263
7299	3251
9841	394
6564	5455
5544	9593
7020	6744
7596	3105
5277	759
8819	7640
4176	127
8712	4822
675	7254
3569	6279
594	3052
4929	9110
953	5139
2856	2615
1344	663
3997	4268
7459	4293
9084	3802
3178	759
6130	7801
98	489
5252	7755
3878	2538
1126	4517
626	2165
1786	1577
982	6346
5705	5992
2757	2816
3495	8544
6755	1728
2455	8241
134	1205
1535	3652
1417	8231
7021	5555
2818	392
2828	5737
6831	5327
6372	451
7061	5919
2167	2154
5287	7875
1874	2947
309	4776
3190	2897
7312	4292
2952	4814
4133	7544
1006	7000
4506	8939
7539	5793
7776	1951
6759	6527
1408	1660
435	9248
8415	2029
4357	5699
8005	5519
8521	4547
6145	5896
2410	7607
1038	1673
697	1565
8846	7201
6465	4014
2960	9292
8995	1215
8212	7940
4345	2983
5790	5006
3376	20
3802	7079
194	2672
9784	1349
3995	8732
8449	2981
4914	7565
2897	8166
9941	7444
7107	3294
9979	9949
6948	2951
1511	2677
800	3270
2903	2300
9604	9441
1381	3595
5772	7256
7938	2295
5159	9101
2171	1512
832	584
6954	3262
5518	7050
5288	9595
6445	2622
4288	9380
1080	6461
2067	8525
5069	2643
2625	1780
7008	6368
5700	6284
7300	6323
5516	5426
609	7202
6021	8292
5534	3991
8585	8357
899	1855
115	6401
6234	6694
1473	2153
62	5541
5927	4233
3384	3387
5749	1141
7651	7968
844	3168
2441	2382
8460	9779
6727	69
6124	8761
9858	7606
8509	8746
8592	1809
7382	9921
294	9928
4872	8639
2883	1214
8546	6181
4256	1989
9401	6552
2044	5573
2496	2649
2028	5383
1221	8178
1570	8180
419	4608
9682	6683
7233	1089
712	6164
5221	6307
606	1227
5889	6968
8646	3963
6898	3955
3582	4827
7879	5168
8875	7243
5021	2186
4786	1750
2429	4427
5252	8221
3923	7998
2980	3005
6887	3194
9194	1557
8741	7819
8220	4447
406	2940
9472	6985
4973	1180
1177	1706
888	5316
939	9134
15	3417
6097	8126
9527	2152
8958	5383
2166	7869
9333	3997
3328	5119
4524	5464
7936	9261
1804	5124
2364	7358
3558	6312
5966	6174
4169	1264
7263	7919
3231	2216
1748	4381
9547	9186
327	7114
6785	6658
1800	5457
2104	9421
4263	1822
7554	6899
1239	5626
9819	6437
5477	1597
3487	3892
5952	8902
7006	4583
8144	8316
141	9444
8312	1123
4771	2492
9550	6936
238	7050
9297	8848
5642	3711
4948	8711
2585	244
6926	7280
9742	6197
5089	3146
4192	9398
4369	2508
6566	9122
7259	8630
8299	3778
3222	7623
5710	7888
8446	2862
2543	5615
6809	1140
6949	7782
1736	6725
3904	6778
5995	3661
697	1282
4957	1142
869	7355
7061	7267
7610	4919
6390	1370
6921	9172
5764	8076
5257	1505
1170	4524
6781	5618
6237	4948
1583	1184
8778	381
6197	856
5354	4571
1900	2590
2169	6008
2865	6456
8909	1745
3333	643
9024	7894
6131	7619
3709	2877
4132	1684
3987	1696
2899	1914
9837	940
7122	6993
1274	728
4072	3727
4542	539
1196	9173
7680	8299
2555	1881
6366	1581
8131	1291
4709	7238
529	1218
5533	7425
6099	7590
677	2914
2442	2929
1732	3457
9143	1794
3083	5623
7126	7700
6328	7940
887	4163
4233	9127
7979	4456
5248	4338
3922	5212
7981	4014
6861	1869
5234	707
5753	5730
3248	6023
1640	2360
6498	8978
2698	4873
8666	5216
7267	1620
9734	135
3740	3778
1604	3534
4005	3744
1435	711
1986	3987
8183	9518
3715	1918
843	2959
4195	1054
5902	349
6998	5919
7667	8183
2230	8688
2477	7805
6655	8134
4915	5004
4395	3192
3353	4275
4360	1839
6265	3311
243	3195
470	9855
1228	2816
876	7627
386	4642
7144	6609
6003	4032
6904	4699
6607	1605
9210	3784
3792	3547
4143	3908
9236	9894
9982	8565
1205	4157
1548	4759
8994	5606
4252	6734
4333	4610
2009	792
1554	8422
5457	3816
1289	7664
6525	9640
1475	3175
7583	8805
2277	1096
6711	598
