6898	3571
7608	3334
8789	389
1549	2763
6533	589
8230	6213
1008	8286
2561	191
1169	6062
3534	9937
4772	874
9260	7040
319	7876
2039	3371
741	9946
3829	9549
252	5644
2206	8887
9162	2757
894	2659
6925	4948
1242	1118
629	9846
7785	3056
6437	121
3112	6963
5618	6774
2051	7685
7746	2858
6626	7865
1711	3158
5631	3747
4468	4742
4240	6132
1940	4470
6137	1344
450	3424
2694	7945
409	559
655	3270
8114	4842
9495	7824
9292	1586
1715	2192
1474	267
2852	6432
4697	6331
7465	2777
8266	5948
6506	5577
8256	4083
7697	4490
2019	776
7322	630
9387	1928
577	751
7561	9756
7823	3962
4262	3992
351	7312
2937	1750
1837	832
6013	727
5236	5672
9738	5164
7379	1694
4789	8636
9871	3676
63	680
9526	621
4504	784
4861	2431
1122	8266
4398	9080
2035	8478
4907	2606
488	493
520	3640
5355	277
1422	6162
7935	6525
5913	5616
7632	8524
1213	5910
4893	5294
2524	3248
8049	7938
9680	2798
7576	708
5364	2964
848	5129
3946	4103
6537	6201
9580	8799
2121	3043
8839	262
5935	4368
5588	8558
5496	2343
1643	4506
2363	6336
854	4746
3055	9211
11	9502
8059	5223
9380	6445
5417	9346
6606	8872
6347	3813
667	2678
4390	3226
8676	3350
727	2108
3063	601
7272	4576
9898	7906
6294	3651
5577	1202
8848	8052
9388	5320
8739	1585
9776	7589
6059	7908
1820	5472
9690	1500
9779	3032
6681	2041
9338	8253
6933	5937
1404	3133
4917	9846
1485	8155
9300	6875
3085	3019
9387	7808
7410	5805
753	2173
263	2762
3729	8564
7117	919
4044	2287
6712	4295
1899	4246
8534	9001
7590	3195
7778	8671
8589	1688
4719	7838
6236	41
4002	4404
9712	7416
7638	9213
5053	4005
2872	1189
3015	6747
7609	5377
2166	4712
7274	2845
4324	8707
3079	5632
4461	532
7635	3688
4975	9306
6206	4594
6938	190
2556	1507
3395	7132
3556	6727
9946	4419
5309	7759
7786	964
1465	4389
5158	8878
70	4272
436	8273
87	5756
5274	3679
6995	4617
6671	3083
683	8556
4165	7213
4652	5446
2577	7594
1662	4441
1366	2157
1194	6524
5880	608
4080	3474
5088	4814
4103	9620
3744	957
651	7903
9460	1465
9004	5079
2291	1240
3866	8459
9277	6409
3228	9152
493	8690
3549	9171
3048	5296
7509	2156
2771	9041
3385	8527
810	475
1816	3013
1131	1663
8998	3804
2009	8984
2505	7755
1107	1560
5506	1431
2087	6830
339	7384
9806	6803
1636	430
1401	5638
9748	3359
2733	815
6413	6271
1575	1752
7626	7523
6464	2505
2249	1530
9373	1779
9297	7634
8921	4770
3987	6897
7554	8527
5092	721
7304	4275
2897	7865
5913	6880
3372	7873
7878	1762
9281	9627
5138	1884
3696	5059
7784	7113
811	5379
3466	3659
88	6222
9272	922
3940	6807
9922	72
1454	5730
8628	6628
3716	2925
9629	8279
6160	6994
7571	7185
9276	1000
1831	5460
2337	3800
9478	5909
7785	5063
9761	2260
9475	7030
910	9559
2094	2049
7913	1529
2829	7838
9767	9012
2898	9286
2636	6638
5486	9176
7693	8316
9631	8621
273	4035
7871	3793
5810	409
9785	2418
4736	4074
1815	6839
2040	2601
3487	3050
9174	4674
5579	6753
3884	8967
8089	5582
5611	2071
3883	4077
565	1213
9128	6081
9019	5270
1701	5423
8647	543
1357	9370
4649	1185
3173	2460
9842	9093
1975	5291
8004	8022
9392	5065
4470	2703
9055	1131
57	256
778	6472
7527	4260
4960	1290
8248	2504
1326	315
880	1470
6750	7210
3828	9371
1161	5490
2444	5575
9927	4581
1632	9230
51	6174
7886	8704
5029	9615
6374	1073
9433	2896
3628	4453
5339	9783
4696	2975
6386	1166
1565	7573
754	477
2193	2811
7580	5380
7719	1653
5153	8001
884	5712
4853	5634
2768	1568
6950	5629
7198	7001
7372	6608
7002	8880
9720	5943
6666	6525
8453	34
5989	2232
3786	423
6081	5617
9790	2268
3985	2933
8700	2519
7296	9775
7993	8631
6891	9255
3679	4933
3140	4306
1809	5177
4768	4940
8203	6478
1853	9780
1775	1031
2837	7294
6949	4267
2014	9985
3643	4633
3173	3854
9109	5560
4431	3237
6944	334
163	5291
1287	4307
9905	3763
8119	399
3701	6987
5621	1918
5482	7424
3352	2438
6357	6266
1991	4104
1479	5874
4213	112
6551	6496
5126	8833
6690	6676
8612	7978
5789	7643
6171	9219
7972	5072
8439	6070
9983	7105
2766	198
191	1290
2329	9906
5942	8060
5984	2517
8335	871
2661	7602
3162	6807
580	6727
7076	9240
1643	2108
5151	2656
9818	6679
5386	1325
2167	687
5999	1184
1017	1270
1869	9839
3425	5008
9602	5965
8816	887
1317	4158
3720	94
6589	6915
4429	6316
2657	2958
3339	5757
4793	1368
3263	1918
8718	2571
594	9509
2388	2427
1836	8953
6674	8676
73	5035
4360	5972
4518	5568
7565	2169
6883	6193
5177	4685
140	5606
4548	7855
2114	4021
4366	6601
3138	3766
4979	8831
426	1215
4184	7895
3789	7996
6104	2500
1834	6309
8141	5804
7824	3668
8992	4206
3457	5312
3786	2476
4569	6652
6449	5467
7805	5441
5021	2681
687	703
6727	9521
755	7671
1797	6878
7151	911
5388	9331
3029	7713
998	5783
2627	587
5222	7484
9123	2977
2120	7374
9245	1969
1340	3231
9419	1971
6615	1804
2103	237
8089	9827
5412	6539
6405	223
1438	3776
7685	35
5833	4346
7106	1893
9409	764
4613	8275
7719	9686
9545	5227
4005	8676
2776	2721
1992	979
7620	4471
4714	1939
2187	3573
7402	4590
6586	4219
938	3511
4928	3581
8788	3508
4702	6154
870	3881
122	5517
4392	3703
7949	7147
3499	4248
5674	9268
867	5279
3743	2332
3589	4190
1342	5237
1972	1850
6569	6884
6750	8206
2368	6837
4312	1380
1861	2333
5598	5350
9900	5319
4059	1458
893	6994
3643	5328
5006	8847
2900	9976
6791	9681
3334	5471
7065	9735
96	2015
2508	657
1894	8644
1628	9834
6766	361
4345	9953
7712	9133
6309	5497
2826	7995
6909	5360
5532	6941
8179	1289
55	8457
4790	9714
7442	8603
3164	9088
9172	1886
7856	9193
201	7508
2358	7959
5878	3897
1135	3308
3113	4147
1169	7532
2247	7064
239	8959
6025	1460
6634	1093
4595	51
7535	9346
7260	4436
4562	6853
8346	7380
5691	1233
2358	2629
432	2526
6401	1183
5071	5745
534	9560
7595	1272
9053	3256
1822	8495
645	9595
5979	2221
3867	4130
8499	692
6970	8164
8361	6160
1863	5901
9735	4655
7550	6678
2976	7599
4545	3882
3402	2338
2654	2303
1418	8677
6318	2061
2647	1906
42	1349
8783	2445
5226	9941
1371	7894
5936	4759
2924	7905
4147	3692
6796	950
7541	803
3527	5114
6736	3525
3362	3944
2530	2134
6171	9450
4407	9665
7778	7850
4882	5372
5466	7399
496	5490
1606	495
967	1522
5730	2407
1551	8186
9426	5127
6054	9587
5934	6315
6796	8526
5181	4149
6631	465
7160	61
7863	4788
4751	7758
9999	5709
3102	8615
141	9522
925	2824
8087	7308
2182	535
6739	9020
5495	7895
9401	4490
2510	8741
3630	1091
3984	1259
6288	6422
3532	4810
5733	9520
2152	39
5276	9962
6609	1162
2382	9494
3338	9233
3287	1790
8457	235
2360	9913
7698	195
4887	8228
1991	7624
883	1520
2551	8394
1528	1115
7008	5729
820	1011
4923	6440
1503	6635
4349	5187
1947	5698
3680	4594
7260	6825
5319	7023
676	2735
8762	8710
475	2875
6494	7345
9485	763
6564	34
2869	7948
2647	6886
7988	672
2160	1222
2962	2139
8186	6972
5067	8829
3658	9079
3489	7160
7729	8300
3089	7454
7555	8399
3404	7668
9755	21
8866	9128
451	4717
8517	9671
7	5098
4011	7415
2742	1671
7227	1914
6708	3290
3870	8706
3329	7868
439	3516
3548	7599
3490	8038
164	3306
3844	4353
9425	5725
9414	3149
1763	3328
1014	3481
9914	8406
9679	7192
1326	7720
5276	6342
1019	9382
1115	8566
488	4917
308	1804
8157	2406
5889	2047
1194	939
9486	4316
1043	5623
124	6523
313	5894
7292	8030
4338	9028
8605	9929
7685	1135
618	7137
5007	6206
6616	5349
7934	7097
6248	1595
2453	3636
3459	2771
3353	5384
2135	790
4409	5505
6042	7904
2751	5746
6440	4431
3166	9219
75	4255
8742	4256
9893	2399
8957	5073
7764	8247
6821	2995
7552	4140
6245	4153
8277	7238
2123	9115
6299	4579
347	7255
5310	8709
6608	8345
3563	9220
6584	7312
7423	4734
2613	317
6751	664
5471	8648
7131	1719
6239	9934
3399	907
8007	9992
3879	4950
791	5308
1758	4277
2176	1439
9219	5968
8096	7299
5478	8780
4690	1700
6769	6306
6559	7785
7904	3799
7021	254
9672	4586
2206	4722
4834	5983
7744	9831
5600	9001
8864	7290
2394	3335
9787	7034
6860	681
6936	9842
1296	5739
6817	3599
5797	91
7731	5653
263	3475
5037	5355
1664	2903
1879	5200
3307	1104
2561	7890
7953	6915
8863	140
5107	7920
7852	3791
5344	3230
6143	3457
6601	8399
8509	7178
2335	9450
9098	5861
3185	5178
329	697
2683	5749
7674	9193
3638	3265
1966	1520
5347	8951
4240	3713
8032	5440
2777	474
5821	7295
3000	6339
913	6854
4878	1174
5916	981
2710	736
567	9940
5238	8993
1096	6938
2608	2995
6490	1925
161	6271
2215	9541
4887	8416
7595	9957
7544	4533
977	3972
2934	7430
6597	7330
6813	3242
4868	8328
6592	9688
5470	5124
2821	4535
9844	974
972	8114
7148	7656
2966	4734
9112	3354
951	239
522	3730
5067	1510
2718	6740
3105	3126
45	5925
1532	1520
5898	4592
941	7011
7333	5081
9039	2773
6306	8323
5233	4727
8634	7094
3596	5185
3788	9035
1922	4042
561	4317
8017	2981
5259	4189
3055	9388
7182	2954
9547	6181
4066	1751
2442	890
1188	6743
7228	6304
9119	2084
4791	1781
7185	3390
9329	5409
7154	5312
2999	3198
4595	2839
8548	3765
265	8117
5891	4609
8570	8937
4926	3055
9016	4869
3225	5881
9168	5649
5962	5094
7049	4772
9439	9928
9888	394
2120	8683
1	1210
7718	8409
2909	8700
4513	3223
3858	9893
8171	1014
8600	7975
8216	9980
4244	5452
8784	1952
1058	8988
1182	5760
4593	56
1377	6072
1401	4487
4577	3944
3541	9436
5989	2909
6018	2692
876	4924
9648	2780
138	6280
9261	6931
7444	3884
6634	3977
9308	8565
7443	535
67	5432
5596	4674
9974	9056
6476	520
3506	9482
9878	3834
376	4229
8728	204
6194	4162
5304	3970
529	110
7691	5373
4282	934
6720	2774
3011	5545
6974	9158
8762	6895
2984	9196
4699	8491
9397	3950
5088	8684
5210	322
5016	2196
8063	1094
5454	8195
9245	9213
3733	9645
8777	4520
239	797
5125	9079
7659	8085
9908	9798
6383	7458
3547	1490
3132	7408
655	494
6260	3225
2952	4018
4056	1385
4159	6449
7534	5627
4146	8037
4146	7830
6213	6334
1099	5255
3066	7570
719	3484
7723	387
1423	6742
551	8655
8200	247
4217	5861
427	9406
588	963
7566	8290
403	8478
3216	2646
2967	7862
4212	9936
9171	1730
6540	2866
286	9452
1084	2022
1334	9675
9569	7475
1744	7805
6806	7433
4048	7927
2260	8421
3044	4312
5481	9605
3757	4801
6068	7680
2239	7133
2794	2373
8006	8516
1251	5020
6906	5459
1563	3546
2746	2873
8583	7237
5996	4739
2538	1134
5917	5041
703	1064
6862	1458
144	8736
9753	9580
8157	3041
5366	6318
3453	5233
8694	471
9676	9086
7107	8028
5323	6871
6317	1814
8891	1832
8768	981
1350	4213
5397	6870
6973	7529
3441	114
4834	5513
4501	576
8648	91
8304	1786
9853	2251
2728	8274
5572	3978
4563	2063
3505	5784
6084	2345
8114	4713
4401	6467
8727	4543
4155	5967
