4709	8443
9485	599
5471	9465
9844	2346
8679	6340
2915	880
2072	8046
743	8142
2248	2188
49	4381
4414	8494
7592	6611
6293	6961
9099	1400
1211	3151
5469	2141
1675	53
3288	7300
2878	9654
3227	5370
2187	117
8063	8850
9878	6320
4658	4181
534	3480
2962	5484
8753	9233
9215	9561
9957	2151
5817	9150
3208	8025
2670	901
9181	4141
3878	4771
468	7014
4810	957
7168	9432
1679	8976
8853	4853
3405	9935
7797	8691
301	74
7402	778
9460	4789
920	2560
9537	3275
6313	4101
87	4134
534	3252
7481	535
1700	1830
6173	1576
7530	2105
8194	7653
9957	6228
4649	2913
7691	4
7857	7363
279	7281
5620	1598
4987	3558
237	1152
7425	5763
1950	7313
7044	6949
7886	5357
2049	6833
1347	9904
7277	458
2784	5561
3664	4603
3361	8894
2287	1983
2703	9955
2795	8395
4566	9984
8931	8103
7096	7621
6183	3783
9734	1054
72	5811
2526	1343
1320	7941
6309	4621
3606	8130
7926	275
2738	330
1739	324
3375	8968
974	5399
4853	1451
9016	7876
5590	6313
1667	320
3579	2087
9565	6177
2695	117
7151	1439
730	1161
4461	6424
9194	8816
6929	6436
345	9274
1681	8425
7784	1704
4779	2021
3755	4381
8241	4007
27	4845
1183	2700
3660	6765
6272	8855
6460	2731
7264	2788
8463	515
7602	6002
3537	806
3521	1840
1711	7232
9685	6355
8475	7673
4110	9682
8654	3539
442	7661
2578	3073
9541	4703
5417	8363
1331	8981
3153	3827
2031	9496
4298	1771
9978	272
569	5341
4867	6271
7281	3139
7534	9236
1179	4684
9341	2989
5585	789
488	2254
982	2422
7932	7157
8560	9807
3327	3208
4011	4019
4634	3095
4669	2647
1247	9363
5727	4266
1758	7937
9328	9738
5058	5580
824	8717
7719	5942
717	252
7351	1593
4969	8815
7228	4691
3028	1634
7211	3336
3860	8865
9826	9439
6552	3418
3576	40
6107	1584
3377	6397
274	1630
5278	1384
8561	2898
4190	1275
1383	1318
4560	6245
506	8291
9079	9711
6823	4748
9870	4774
1474	9376
7933	402
6232	3157
2450	4745
1537	9329
2905	6020
6414	1918
2000	6617
9133	8399
5919	6379
2204	7629
6686	7960
8609	7555
8894	9918
7312	1524
1485	5792
1413	4878
6238	6064
3185	2835
4614	7997
4095	4284
351	6763
7339	7833
9462	3758
1645	4801
6460	8979
7810	5218
7	7140
1233	7617
3825	2628
1969	9006
8879	637
650	2485
505	8493
3922	5167
89	7803
9900	6546
869	5390
5772	5082
1844	87
7446	1012
6997	9598
3267	6204
1964	1633
2120	9761
1973	892
1493	6701
7925	4997
617	3797
3446	9955
9847	6707
3112	3864
7059	3874
5332	6829
2792	7315
7251	5985
1228	5863
9769	1145
9326	8884
7631	9845
8094	6819
8206	6001
3922	8349
8936	399
5673	9360
7058	3024
3957	7221
1014	9299
7840	9101
924	5107
2010	608
1546	7
3380	3623
8759	4316
4583	8257
9202	5420
5066	9088
4491	8834
1280	1189
7207	1530
7091	7989
3270	4573
2540	6629
8616	845
3689	1699
4013	222
6364	822
3327	4801
7263	1244
9398	2691
3158	627
3245	2755
3208	2830
4794	2671
6003	6285
3156	4526
4348	7869
367	5457
7657	3500
5461	5914
8979	1870
2319	4971
5525	7251
4357	3445
9164	8804
1686	9537
6924	4517
8627	7847
4068	5757
9878	8490
3826	6264
6606	6551
8443	4755
2949	1801
7521	9659
6646	1630
9488	9013
4281	2371
3654	3056
6831	6451
7130	8394
3604	8325
1114	347
9099	3207
6950	8520
1583	9075
7469	533
8893	4478
9717	1146
5028	564
2581	9114
420	4415
3426	3033
9596	375
6695	5705
5135	8274
9453	9500
4297	2550
1904	8950
3261	20
532	1246
3120	9581
3983	9507
5137	4155
7268	983
2628	311
5823	7878
8630	4768
9281	8149
5327	5408
5687	7933
3949	1853
5399	3202
1215	8998
863	4153
9908	1998
5777	4179
2294	6125
2112	6149
4073	9747
3026	2451
8741	9796
3504	7055
8818	714
2648	8360
2739	684
9888	8394
695	4828
4074	419
6373	8395
4955	9267
3346	9870
5224	905
9481	9856
8512	1455
5981	4693
6528	4957
3070	1634
9477	854
9222	9546
8630	7429
8372	1077
2719	8630
2970	3720
7517	8907
4412	1496
3347	7214
9262	2616
9219	6320
9150	3364
4409	7283
9030	9154
3138	4857
786	8875
3992	7109
5690	6575
2880	3962
6234	4436
4374	1162
980	8126
1744	3422
6680	8409
5548	7064
882	7915
6544	8663
2891	8811
3473	5275
8014	2441
2589	473
9349	7268
5900	8981
8113	5988
9779	7981
7271	1922
2771	2840
3500	4790
6300	3548
6460	2679
6992	7694
8868	9226
2558	8589
4311	7838
1688	6253
2623	6969
1935	4515
4978	8936
1394	848
9867	2706
3458	3803
7782	3389
531	4226
7350	4872
2797	4119
6655	4019
8038	7495
569	2125
9033	513
8718	1059
2119	3373
1810	9646
5204	6162
908	1429
8997	9321
6678	3447
3990	3064
431	3177
1084	4914
5432	2914
6597	2002
620	592
8972	3251
3245	4605
6352	4034
1249	6713
4798	2421
6481	5743
9730	4101
6984	833
8687	2627
9790	6133
1979	8676
4002	5718
4837	4235
7688	328
4403	4515
4423	7707
9380	7909
6240	8199
423	2747
3588	5038
1263	7748
383	9141
7284	190
4399	1576
9782	8461
8813	6156
1906	652
756	7357
4079	7167
6479	5151
9083	7012
4619	3165
7050	8471
7740	2262
1215	2033
733	1222
8855	9366
2311	2616
5101	3564
5159	2283
2257	6375
8042	3114
9039	7164
8716	9229
684	4210
6565	5059
1985	5882
6813	514
5868	3302
2080	9279
1210	6110
5436	3576
6379	7034
9531	7720
6619	2518
5365	3047
9345	1720
65	3798
3552	324
6906	9387
4034	362
7	373
6724	5872
2529	114
7667	4045
5736	7338
4481	5112
1104	8059
7517	3447
4574	8475
3380	9533
5662	6219
8453	4569
7743	4318
7449	8657
5453	1650
7957	148
1784	8386
869	7606
8763	4491
2687	5724
7076	6361
8238	7014
159	4631
3483	9112
9108	956
819	4870
2909	2000
1947	5389
1421	577
9838	1237
3800	9730
6635	4319
7851	6618
208	1779
5434	4914
3849	4018
4161	8083
8101	4287
5877	3669
649	9096
7233	1322
3590	4515
936	3162
3319	9969
5131	475
8458	1893
4567	1778
5997	5747
286	3110
9283	5584
4309	728
4331	863
3902	4493
4350	784
1294	3654
2942	9300
1565	8251
6593	7754
6505	8526
1577	1952
6664	350
7258	2501
9275	9853
1183	4857
3174	3377
1750	4391
7802	5000
6144	9281
5747	6351
8770	4195
7212	6781
7753	9141
7324	948
9251	1858
8361	4834
3415	3501
5254	5771
4714	6187
6716	8141
6211	6996
9079	3454
8946	105
2921	1555
4615	1144
1384	1667
9511	7016
4341	5091
7601	8641
4447	7812
449	1623
4468	694
4631	7373
9569	3879
2450	1567
1741	3695
2349	3014
6321	1670
6941	4939
3555	1182
9053	6339
6705	5641
9627	9181
981	5497
8184	2131
5086	8895
5615	4996
7335	871
1929	105
6780	5903
7179	604
2801	614
1227	6385
7177	1589
7445	2446
7410	3737
5646	2370
4307	6220
2480	4998
6397	3124
7938	8507
1737	4852
4722	6733
4542	9915
6093	1639
3030	8583
9135	6429
9904	3164
3151	8408
3447	3714
6667	4855
3892	7444
5878	660
5251	4989
781	4205
6939	9594
1447	398
8861	3908
332	3729
9068	8004
4153	5251
3144	1397
542	2342
9352	5236
8276	9406
1227	2327
5227	3895
2497	5473
6537	9725
5665	3828
7915	4757
4079	5681
7469	9404
8274	3258
4166	5973
8096	633
5940	731
1995	3557
5658	4191
4834	7668
6284	7440
5343	7893
4317	6197
2681	2668
7370	490
1709	2325
9891	7382
1154	9079
6635	771
9795	5357
6428	7884
3339	690
3099	3275
1280	1358
8637	8206
6906	6139
6720	1933
7791	41
6015	7228
3578	9955
2525	8673
9770	6454
4256	1682
3267	6648
9002	4775
6414	3955
3789	6996
8319	199
1576	7874
9799	3054
652	8015
2068	6951
5623	7545
3234	7968
782	3854
5899	6094
3077	7592
643	1876
9214	4607
3538	4303
5880	4350
3094	686
2410	6359
3642	2285
2767	1993
9490	2450
5150	9340
173	7142
3413	5759
5837	2467
2095	2544
7038	3049
6618	4558
9247	2625
3188	4636
8922	6484
8120	5174
127	2349
7689	6665
2316	3881
8750	3805
755	3408
5986	2817
1047	9386
9164	2708
3388	3688
4718	8778
9044	273
8616	2968
6642	9910
189	2506
4488	8992
2810	4742
4970	8602
1629	1178
1376	3291
9516	133
2663	4549
5383	2781
7610	3679
4040	4227
7504	5264
2788	7043
7629	8637
4126	1328
2349	1959
7673	769
7142	9587
8381	1140
3647	6751
3711	2800
5490	2156
6285	5835
3340	1075
7170	2838
6682	2836
1810	7098
8408	7725
4785	1279
3547	2409
4668	9983
8191	9753
3259	972
9552	7271
1236	1789
5423	1505
7007	6715
6632	5721
1996	9687
8262	2256
9316	4612
6280	3807
5753	1158
3313	6405
7382	5499
2685	1715
912	5547
6808	5865
4442	3432
4762	7093
697	8310
4409	397
4094	1232
5011	7430
1326	1733
2531	2014
9545	7912
2923	3417
6528	1438
8895	1449
9560	660
1207	9365
7958	8635
811	4843
1285	5581
7373	2529
6484	4508
4469	7984
8112	5700
8135	7328
3205	5295
6646	8442
5507	4778
36	1475
6817	4221
9963	595
4844	8658
1227	6860
2796	4901
2132	2408
7793	4220
4792	8352
9742	4720
3679	4653
7685	2466
360	6237
9507	404
196	876
7696	5041
2754	775
4642	9107
4251	5808
8607	9319
6227	2161
5505	3557
3187	6473
9856	6347
8028	5317
8704	3887
7589	1972
9332	8746
92	5313
1132	393
5417	1603
7661	4981
739	7859
260	6644
7812	7486
9158	5670
6276	5652
3842	3654
9657	9343
1188	4468
5537	9436
2493	5378
669	4855
5662	180
7092	5133
9427	6742
2987	9335
8681	1228
6982	9769
7255	1391
3735	1893
5360	8561
4911	3226
2686	8063
4569	6117
7326	6934
5592	7170
9416	7732
332	6260
6744	1470
3183	7109
6695	3981
3235	8792
9757	8814
8395	8225
4044	8044
4584	7985
5388	8027
7919	570
4974	5950
6497	2693
9347	4790
2462	6333
4636	9906
2250	2201
3564	3242
4753	553
2928	4342
2983	3138
1674	6619
5034	8860
3230	5356
4227	967
8990	797
1704	2586
8371	2555
2225	6691
5333	866
9789	8366
6140	7166
5903	1250
6794	7861
9177	76
345	2510
2410	766
6526	3362
7158	6684
5806	7665
2661	4151
7187	9655
3344	8972
641	5242
4064	5048
4948	1699
9665	94
7756	9896
5558	1137
8237	2858
848	5233
6731	331
3666	7101
6453	256
1328	3011
9676	2061
4634	7948
8950	5341
5398	235
4392	3843
3610	8768
6986	1949
7921	8720
8207	1599
4717	5444
7987	6341
22	9524
5793	2061
2460	2229
7829	5571
264	7749
555	236
5943	9447
3837	8727
5491	4450
7700	9439
9305	2761
9983	114
5660	7170
5975	6316
5215	9393
7750	7472
3444	5058
6161	3829
4381	3981
8408	2926
246	5840
4567	4039
2962	6773
4772	4415
8588	5018
5949	7026
4358	9234
5672	533
9862	9776
3738	3010
5955	7054
2205	3676
2970	2231
1795	2700
4120	3738
5875	8320
5339	6722
2116	2726
3700	8246
2603	9960
3186	6029
8105	2508
2472	9850
5215	3974
8580	5781
3181	9137
97	6745
451	9583
1668	8483
9035	1218
1550	8836
9948	1367
6157	7186
4852	1756
3648	5749
1944	7450
9046	2222
3237	8152
3906	5477
5292	8482
8702	3091
627	3615
9030	7869
6519	8407
389	4536
9559	8130
1398	1551
7641	9591
7525	9541
4783	6749
4132	7251
4082	4911
3590	5167
3239	4827
4637	2351
2069	8885
8151	9228
5212	651
8958	4958
2563	9956
703	2404
2093	2592
1254	7903
5346	3475
3932	8744
6176	8583
9225	1332
