4242	6022
5129	6704
6711	8357
1968	7804
9876	824
4099	7746
2670	8213
246	4065
6214	7792
343	9061
7369	6134
3644	2478
8946	6230
7607	9187
6487	9751
9030	9849
4955	5975
6221	6299
482	7109
9683	2112
6299	4700
391	4778
244	7223
5400	3422
8171	6315
3922	2050
9717	5949
7463	6137
1805	7496
5539	8111
1301	7792
5641	716
2470	4915
2743	9272
3594	536
4438	5223
2803	8341
1159	634
4803	4975
6520	7538
4082	7716
8357	2900
436	4360
2374	5515
4914	4353
2665	1737
3677	6589
480	6932
8902	5746
7648	8338
6933	7376
4829	8980
2252	1492
2142	3677
5051	6331
3257	6154
2654	3952
1869	4045
6599	3445
5677	2624
5212	1762
1258	1319
8856	7448
2197	2456
3953	4359
4527	6354
3895	998
3887	442
2769	1081
4726	6056
2610	4738
4748	2109
1415	8993
3574	5342
6970	6459
432	1295
9037	9178
8403	3185
1937	5465
1639	5456
8634	473
3975	726
7102	7516
8022	1307
9073	6220
5550	5312
6122	919
6862	3594
2748	6209
7636	7892
6492	8954
4640	6553
3798	5769
5374	1180
5896	7069
4019	4168
7701	7022
1884	3471
5353	8486
8985	7415
9898	5228
6996	6892
383	5689
7424	4901
5641	2040
2313	540
7903	8470
8752	1887
1492	6083
5084	7462
3706	7452
7526	6739
6421	999
8413	5070
2521	7115
2309	574
3407	1085
8066	9632
370	663
7062	8892
7932	5778
7717	2815
4789	6829
7180	6285
6560	6004
5556	701
2239	1211
7374	3664
8864	7622
8726	1720
3253	5359
7480	3649
810	4025
4809	8217
4282	3706
956	1296
4091	5993
5582	9883
4518	6331
5295	7999
2591	7219
1549	7859
5983	5306
2421	5414
6797	8757
6509	5211
1531	2341
979	6371
1339	1438
7552	5840
4500	4219
9576	3429
1238	9133
6304	9019
3325	7333
5364	6036
6508	7369
7808	5605
9590	9921
5300	3584
7411	4558
9603	8136
748	667
8031	7473
2198	4383
5673	924
9964	4530
5218	4607
7668	3890
8382	96
5673	1927
9921	5639
8566	3940
3779	242
4379	8524
5129	6905
2620	1377
8671	2367
507	2516
707	3803
3561	1546
7581	8661
1341	2631
7494	2551
9403	8396
9397	9956
1880	2543
728	5670
607	9053
9096	543
1724	7823
9198	6132
9616	19
205	8666
3851	5350
168	5404
2364	9821
4717	9942
133	3031
2498	8097
9502	957
1968	211
2804	2434
8823	5519
6136	1777
2383	2
6360	606
6693	8850
3874	541
7967	2005
6683	5558
5559	2537
5777	9355
3414	7854
7968	4006
7735	700
9526	6756
2295	520
3748	8769
3602	1122
9220	4815
961	1470
1466	9257
2725	7712
724	73
1585	8590
5587	6237
7049	8892
3052	3133
1504	5420
2059	3053
3946	7860
1740	740
4063	6044
6662	5462
9215	2839
6056	9837
3750	8577
4805	1866
6070	2524
6900	4442
8599	7332
9178	3447
2265	3568
7689	9957
7365	7721
5321	1189
7276	470
1287	9007
5241	1997
6111	6437
8600	6501
8530	4110
4954	5899
8714	3485
8494	4475
6456	5028
9172	2594
8372	1927
8137	6699
8969	2143
5094	3393
3907	8628
7215	8047
594	7757
9510	7942
5813	7586
4360	9977
5749	5187
5204	7640
9948	6833
7484	1618
9102	359
9655	1036
7043	6573
401	6213
1368	4985
2328	249
7068	9019
9776	3785
9853	5808
1115	5815
6816	7459
2696	9931
7727	7427
885	7196
5033	7224
3976	6544
8847	8839
978	8110
2141	1486
4096	5993
3443	5066
8946	328
2179	6764
3243	2811
2185	2478
9844	1859
1129	7313
810	7326
2104	3896
7145	5581
9294	1452
209	8886
8211	9659
9728	4008
9067	3139
4684	1596
3202	115
665	7505
5545	9713
3903	2711
2328	6499
8783	9419
5871	6794
4648	9148
5259	8358
4839	3428
7197	9671
6026	1898
6235	514
6418	1091
5200	3808
711	7366
9433	9666
1915	4492
3570	6254
4243	5837
2541	4365
1467	2299
798	5493
9847	2496
5106	676
679	7453
4345	1919
8233	7375
4842	4884
1354	8871
7746	762
4838	9943
7875	1982
3637	3611
1099	9463
5326	2295
295	2205
6600	8436
6355	2885
3442	672
4764	1028
5393	8664
9101	7420
2722	7148
5187	5584
3736	1496
5796	346
2361	6835
8468	9213
4707	9238
1926	5343
1823	5913
6373	1038
3732	6389
3092	5356
9947	1507
8262	2131
3087	8481
6576	8574
9389	7230
8347	7312
853	332
2072	6984
527	114
3209	7864
9909	3539
7109	3667
2267	6869
40	6681
637	4600
3787	3106
6757	238
1474	5587
7217	5497
3466	360
5183	1107
3154	5252
5695	3997
4320	136
5642	3865
5907	5258
5645	4620
7076	2981
8754	9741
5979	1979
8133	6662
4786	1374
9059	6219
7227	9215
2245	2978
7996	5537
558	5451
7582	5564
514	49
3085	2950
8287	9228
1233	3308
9880	3455
8850	6487
8114	3929
584	405
7536	8810
1148	321
5049	3149
8008	1183
8335	161
7112	5437
7604	1836
8463	7069
8068	8792
1083	2777
5446	5037
7565	3054
7115	2659
5237	694
9280	328
6744	7731
9734	2986
1835	9019
3495	2755
407	4550
4613	1161
1747	4654
3431	3808
7452	7288
9881	3009
5209	544
6878	2271
339	411
6446	5155
5980	6987
9762	1750
9277	8614
6971	1256
5153	6621
3047	1384
7964	3803
1650	6084
7793	1133
9536	2609
6278	2033
5553	2041
3338	8258
1025	830
9448	852
2375	7661
4303	5274
1972	3418
5491	9299
6135	7243
6586	9137
6150	1516
9416	7822
70	7464
6923	7483
9153	2059
4755	4067
4638	3863
6150	1110
4664	92
8124	6627
3414	339
8625	5717
8617	7877
6618	6622
638	3384
3261	4110
1400	1123
4174	3628
8646	9292
1955	4279
4054	7551
695	1230
4002	8896
3014	8465
3185	1795
6434	7940
5682	7973
5710	2912
5568	5548
5784	3470
373	2337
1380	771
5771	6137
2930	7873
9936	193
4535	7138
8863	7772
8171	2956
4437	6744
3558	756
7567	6715
5897	8916
8295	7630
7257	9699
7009	4596
3952	1045
6102	3720
1781	3226
3590	4441
9029	6305
6721	6132
7839	3868
490	50
384	1566
9404	7149
2538	9198
1947	357
5544	9885
7839	42
6821	3087
6889	9387
4612	2367
3919	1728
5133	3800
4925	9977
914	7088
3369	1808
1402	9654
9888	3790
9631	6771
315	3629
8510	2623
8279	467
6990	2661
5298	8457
6079	8067
2451	5806
4881	9558
8180	2415
296	3071
3755	605
937	9418
7481	5184
5888	642
2280	6411
8142	2322
1321	3307
6717	9114
7788	1131
8879	4994
4320	9993
3750	6268
1917	3961
9127	343
7385	9754
2553	2993
8330	497
5220	807
8642	8650
6162	1165
882	4850
8660	9489
5479	3105
2043	5184
928	4230
7786	2729
5477	7706
7992	4399
7974	5737
6470	7195
4652	1489
9726	8675
4833	826
291	3984
9069	1048
7978	1251
718	6846
802	7630
59	5503
711	2325
7993	9542
9191	4938
2989	922
8441	52
9406	7824
1883	4386
254	4357
994	6384
9821	2433
4219	3409
6821	5330
9531	6748
5222	8741
8620	8601
1361	9348
7812	9525
2168	7574
7465	9164
9582	4879
6219	3790
8717	8659
2489	1369
3826	3461
4927	8372
9924	9814
3486	9069
7580	5911
4908	7829
1080	9640
1986	1663
7327	5410
6597	7077
6804	9314
300	3520
9366	8747
7296	4002
3442	3417
3878	9996
9928	582
6359	796
2189	8174
9607	8444
457	5809
2467	6094
1289	9200
3051	6596
7602	6878
5651	9778
3649	3599
2714	121
9560	1852
3054	3461
9263	3809
6480	996
4592	8242
8955	1613
5307	7970
2031	8524
338	8364
1737	7774
2415	3280
9075	5712
1499	6499
2344	7979
1673	4575
7612	9214
4097	8524
3793	376
69	48
6534	3473
60	3209
9965	8626
3991	7707
8951	9822
7527	6934
7787	8143
3501	9206
3078	6678
8628	1907
6719	3625
4994	1103
7274	9189
1867	7161
254	8279
7346	596
1028	3650
9794	16
4115	4520
7017	5512
1195	7866
841	876
2526	9756
4215	7998
9261	9549
9681	4870
2838	4788
8564	1365
2972	6785
9559	6246
9515	8018
2561	2033
880	2616
5692	6085
6211	2841
839	5227
4849	3575
750	3457
7299	6472
7628	6168
8790	8267
2417	7807
8982	6381
7339	4488
9469	2269
1999	9296
4721	1916
2240	4365
9132	127
471	9224
9697	6876
692	2935
8075	1091
9480	3654
4977	1625
669	6306
3806	939
8993	8102
8486	1483
7066	4339
1058	1573
8959	7142
1915	7344
8286	8650
6286	7714
177	8050
636	9620
3702	1041
8582	2475
1539	139
8516	5946
566	1933
2340	3062
2907	5063
9733	8284
8685	5322
6343	4529
5673	5449
871	3109
4364	4346
675	4326
1715	9347
3344	4212
4271	5515
3902	6994
7502	3873
3244	3031
1834	6058
3372	6464
4567	8980
6029	6744
437	3483
5190	3814
7685	1591
6449	3074
578	2083
745	2060
8420	5562
335	9911
9949	5461
4092	4297
7344	9400
5478	8974
8513	7260
3167	8296
5536	4731
4825	5882
7277	9920
385	8357
5091	4468
2546	702
8797	6520
8991	1796
7563	5634
1917	4976
588	6155
8923	1589
1450	5494
5324	9902
575	5464
7142	1362
4716	516
60	1716
2478	3860
2038	1874
3303	8341
666	498
5911	8544
51	2957
9923	464
5675	8018
7363	1751
2981	414
7690	4452
475	8480
7140	4473
4044	8320
677	8867
8672	339
5753	133
4473	3420
1693	7283
6940	4594
32	971
5955	5207
8141	4473
4381	8789
8251	8415
5619	8800
5508	9690
5474	2984
6997	1605
4627	4610
2655	8276
3444	1068
546	2348
2060	54
2556	2059
2141	8877
4470	6124
9856	1354
5573	9220
3098	2663
1548	3671
3257	113
9129	6004
6498	1552
8087	9890
1591	5
2139	7722
6878	2606
4391	1607
6209	5478
8439	4381
7528	9130
1931	5734
9831	4025
9728	1879
4989	5685
9123	3225
5408	1703
639	3237
8956	5943
1060	5577
4189	9980
3371	423
9375	2370
7749	2338
976	6137
8561	2138
8421	9080
857	2786
2681	6252
6095	2666
1729	6729
1194	4368
6718	7586
4568	7307
5293	5860
7643	7549
8935	498
3790	7397
5086	1140
2810	8674
9851	5517
85	1585
1314	6327
2889	7817
8875	8831
1705	8953
9014	7081
8387	2566
3806	4256
8473	7737
4292	9539
999	3589
1923	4621
6954	8919
2819	5017
4449	7018
5798	5449
3360	182
7613	8106
5510	8452
8694	1526
9137	8756
3307	522
7220	5345
3281	8736
1199	1480
2823	6107
8243	8419
7796	5483
6673	5345
6466	3472
4498	4874
5229	9032
7103	2997
1987	2635
9745	4772
5054	6946
3063	1239
8368	6322
3284	6760
1589	4648
8416	2201
9315	6973
1527	1317
1062	7227
21	4205
9759	6729
5038	8384
290	887
3711	2866
4240	8351
454	9762
5799	4235
2604	8883
466	2983
3393	3221
1	5164
7313	4629
8986	9627
7363	3974
6880	5720
1475	2078
3956	1176
9907	5982
4842	2895
1877	8451
9415	8114
8159	8283
8175	3633
5719	1367
8378	759
2598	2412
5256	4358
1491	8480
5021	4113
7725	1226
2251	679
2528	439
8629	1129
3382	1027
9626	4780
8339	2226
619	7867
1719	3580
9175	2902
2707	5640
694	3999
2071	8321
5737	3112
5847	8068
527	6292
9764	7356
4268	3848
8861	5873
1147	1648
25	374
4710	5967
7405	1593
6735	5003
843	8498
9293	1464
1182	2442
9681	1596
6548	5794
6570	8474
8828	4367
7530	9960
5419	957
7506	9449
793	205
2826	3662
5453	8180
969	5801
8623	4345
3112	6935
9732	1699
7598	7434
1023	6628
98	4990
2515	2004
4000	126
9720	4457
5140	3159
8509	7289
6532	1644
3414	9850
6483	1816
1534	6385
6671	1583
1575	6464
1440	5314
6849	2588
1866	5824
7174	8444
8174	3168
2422	9115
4703	4634
4654	5644
1093	48
4300	6719
5305	8953
9621	1511
1755	620
4184	8528
556	475
3674	235
338	8328
998	6307
