9693	8021
2629	7309
5007	7847
9591	5535
7279	6402
8183	2034
4574	2580
9586	543
1699	9599
6424	1834
1263	7718
1384	5891
3146	8469
1296	169
3775	7326
9858	7321
2327	1279
5336	5331
6875	5096
550	5452
7222	544
2245	4073
9751	4633
7472	7473
2953	7320
7077	5101
9967	1585
3416	4286
9702	2502
9458	5998
902	3431
3123	1620
9754	920
2054	552
7016	9162
1783	778
4704	2765
665	2554
4747	2019
9204	7545
9678	4170
1674	7605
866	252
9050	2613
499	8657
9397	6388
8883	1267
4745	8416
8817	4966
9427	2481
9570	8179
9252	1075
5871	6326
3047	3304
9885	7758
6128	5221
7334	3744
486	8148
5563	3296
7764	3842
2924	5983
242	289
5443	5281
2777	2616
2133	2887
5361	7221
6386	8521
9718	5515
3241	8752
4792	3821
8285	5365
3698	2222
6474	6364
5220	5648
8095	7964
8482	364
8881	7337
9300	1155
812	3884
3907	7313
9924	3452
7596	7330
6051	4824
9978	3984
8699	5173
7756	6959
2077	9802
1438	277
7431	980
6802	9994
6654	779
2972	5528
3943	5428
5704	9315
6686	6719
6845	4282
9869	3274
5903	5480
7659	6869
9274	7866
6585	1805
4389	3670
3899	2072
2143	8390
5519	129
8851	8347
2844	5264
4176	1403
2021	5665
3941	3281
8877	5776
2414	5904
6520	2674
3053	50
2372	7666
216	7480
7426	7688
832	87
8872	1976
7024	4315
6783	6475
3069	9662
9327	2603
3557	251
575	1739
5642	609
5017	6986
4136	2468
9953	3136
3103	5413
9988	3699
7962	3243
4699	7677
6518	649
3415	2018
4972	7478
6382	2249
4266	6415
9189	6739
7930	1457
5756	6071
5930	614
2416	5392
1667	6599
3206	79
1041	2194
1794	2006
6204	3548
5921	385
734	9256
2974	636
6022	9650
3614	7214
4375	7016
6407	3958
3890	9483
4968	9878
136	8561
9031	8307
7022	2380
751	1259
8679	1157
7344	1872
8338	7452
2033	7671
7708	8539
2415	5489
3777	3948
1982	5659
5374	1502
9895	5941
3191	6196
4685	900
4783	1865
2642	5229
2494	6631
2481	2208
8405	990
2706	4013
2537	3676
8789	8016
7970	9012
699	8071
5429	2922
1912	9177
8683	4233
4591	9092
2170	8559
6713	5679
5197	4096
7184	8920
8203	8042
5073	7097
6289	7006
2102	5336
5859	5462
7024	315
5996	3470
8024	34
7370	2026
8980	3973
8623	4464
3409	2668
2113	4311
6812	8033
6857	1302
9678	8585
5248	1299
1495	7116
3754	9154
9679	5288
705	4531
9607	3690
7119	7381
2173	7852
5603	5653
7683	5864
9428	4002
4766	1238
3426	3111
8387	3054
2717	4917
6047	3054
4530	9789
8045	2665
8258	321
8946	4877
4821	421
5613	68
1217	3012
3153	5702
9676	7820
3890	7319
7809	8029
3727	556
1476	6919
3602	4367
668	6496
4865	8220
6167	6187
7169	5713
1885	1252
9803	5892
3722	4809
5477	9049
4547	5312
3259	8963
2023	1424
696	6234
3836	6040
6399	8727
95	6999
4945	5594
763	7366
1945	290
6965	5550
767	1487
9044	2115
3294	8797
1102	7084
8226	5342
2848	7171
730	6300
187	2774
9931	4595
1333	2581
6906	3957
3796	2258
4076	9441
1834	9990
6956	7148
6430	3870
1949	3051
1697	5935
1490	5439
2935	2040
9512	2695
7370	7002
7764	745
7773	681
4838	581
589	7528
2455	5467
6244	4693
2982	6306
4790	3249
964	3844
9953	2284
7833	5368
2940	4252
1796	1341
2085	9162
7130	7997
8991	9384
169	8509
3940	2802
1895	3357
2699	8275
180	4198
2686	4401
3389	5112
1626	6336
2892	7763
3249	6959
1518	4050
6831	7741
9273	2899
6390	5900
8098	970
3943	9934
8914	92
2078	8091
635	9005
277	8821
3924	5066
6040	6811
9191	5681
4999	3751
7478	8783
1407	6906
4258	6841
6698	5377
8632	5087
5523	1866
4516	1459
8534	7515
3078	6101
319	7519
732	655
1525	7889
307	8759
4283	5363
5112	9478
7934	9045
7565	8657
5039	8728
2034	6514
8216	8814
9217	6831
4044	1496
4326	1228
4659	1144
2344	3419
3231	9926
5033	7230
7107	5701
179	152
8045	8841
6021	2436
2211	6828
2470	114
4398	2221
8738	3672
9943	139
8702	8083
4679	4815
4766	4334
5103	8871
7591	4336
1984	1177
8547	257
2949	1769
1648	8182
8385	1473
2485	1461
5646	596
1316	5873
7180	879
1801	6258
1550	4430
1506	9544
9257	8626
4817	3222
8127	7419
8808	7877
3696	4203
2641	6212
4888	6665
5716	4833
4668	3221
9930	5330
9175	8283
7246	9685
941	2510
5318	3467
240	5287
5216	4795
2294	7608
8696	8468
9568	2031
1336	9403
3545	7879
9471	7250
1110	168
5301	2399
6904	1987
1061	3260
2590	1126
3041	6630
711	5335
7969	4962
2453	1461
5987	7261
7531	725
4235	6058
6583	9948
7623	3781
2494	8887
8229	8375
3976	9572
9266	2205
5661	1988
6874	925
9816	7237
2069	8200
2380	1588
5761	8724
2630	3347
5655	6708
6789	303
6792	2475
7361	4200
5397	6349
8006	6635
4599	9822
31	9667
1085	7252
9768	4933
2530	4077
4693	2681
4483	559
9465	6394
7034	3883
7382	6017
3187	7359
322	7694
9961	4439
3814	6554
9108	3561
5103	6990
6095	1793
4367	9027
7755	6417
3533	6816
8281	912
1547	1470
2400	4116
9396	4665
6139	4204
8316	9392
552	7497
4396	636
8784	8472
9136	8914
8434	210
3661	441
9668	9156
6804	5046
6236	8581
9748	1461
3559	8343
2686	4797
9589	7850
9400	9827
5473	4957
8012	6156
9052	3240
6610	4421
3463	1380
305	2108
4098	7920
6338	4183
4337	315
4675	6390
7894	8075
5931	9005
2036	2913
5898	5102
9637	54
6650	6873
6251	2189
9503	2102
180	9310
7480	8727
1090	3851
9306	1351
8026	6107
6863	5869
5125	4108
2670	4630
3665	2876
1982	5571
1883	853
1826	1647
5841	1468
7537	8411
316	4415
6015	9438
153	9926
229	5114
368	6845
193	4158
7163	4001
3248	9024
2801	9685
8980	5710
7076	2128
3385	4939
7124	6873
6554	8089
5066	767
348	2779
4784	3879
91	5842
4253	1906
3139	6980
557	6152
8054	9096
1470	8133
6604	3652
9552	7743
7801	6882
1347	864
9718	6600
5529	331
8446	364
5477	5137
3368	1546
4369	9952
6149	4733
6831	632
7552	6809
8617	1928
8687	2613
1512	6418
7247	8754
5394	1837
6379	7972
2657	7519
4493	445
9204	7918
3163	6732
3612	5475
1878	4803
286	809
558	4350
1281	8275
2697	1982
1306	9014
8379	107
7411	3352
3485	1104
371	1258
9913	6515
2204	4221
188	7744
3911	6594
9966	8884
5129	9555
7336	5797
6104	3494
9305	5098
5964	2947
7626	7746
8846	5905
8629	6176
1682	3794
433	4211
297	2282
8662	160
2798	7445
8122	403
1147	967
8602	2486
9192	4986
9479	5527
3317	8428
4624	5973
2288	4146
117	591
9589	8550
5672	4971
195	9919
3429	7791
25	1065
9714	1089
6289	6008
7675	2821
8058	2931
8008	5474
9190	5250
8086	3382
1454	4118
6806	5243
7879	1935
2683	3488
3914	4648
8200	4173
5616	9015
8755	2605
5023	6756
3530	8066
4981	1461
4155	7464
7272	3682
7092	1873
3902	8261
1493	746
2125	7613
5801	4869
9056	6508
42	8328
2565	2264
1046	5666
9796	6230
8582	5617
7379	5905
4182	8817
8802	2601
9597	2064
7876	8376
7782	7785
1068	7984
9121	1911
6258	8399
2802	7849
596	5366
3169	8361
3356	8743
6743	7984
9617	8951
2201	5416
5500	6238
6590	8038
4855	9222
1332	8992
9195	2131
9959	9372
5723	4854
1269	1573
141	3748
4387	6899
1483	533
9217	2841
68	8482
4143	2626
6963	5384
839	3430
4842	6112
9195	8701
2856	7357
7600	7441
4214	6625
9714	1730
5608	9056
5297	6202
9768	5672
1565	3721
7283	9376
8398	8786
3122	3648
5284	5959
4315	6450
2937	7828
5505	7319
2010	102
8229	4318
6602	5482
6326	4862
4399	350
125	8154
1971	7535
5965	3259
6428	1278
7820	7263
6736	3908
445	394
2915	5240
2029	6512
80	5288
771	656
3214	6364
4457	8542
8077	4958
4300	7855
4232	8759
6795	2997
1270	1238
1205	660
6666	4438
6592	2824
2883	6756
8870	9240
6237	6538
378	3446
2460	6111
6571	1839
7523	2558
9294	5887
2660	2306
1542	949
8187	8418
6641	2243
2113	3063
4198	1618
6838	9546
12	6172
2852	2275
254	4792
995	9981
8569	5339
421	876
5204	9896
1304	1773
2162	9990
4109	1120
4426	141
4471	7530
6801	3163
2646	2745
598	1465
1073	6993
7967	2826
5169	7198
8180	5155
2134	411
9122	226
7928	2749
8702	8998
8832	7026
9547	2827
8213	1867
1157	6802
1661	5046
6319	3143
5563	5306
5382	5355
4991	986
2520	5563
2763	2347
6409	1539
9562	2404
5613	2666
4840	841
1872	3846
3355	1766
9329	4724
98	7846
2528	9851
7502	7901
7655	2674
8708	210
8545	23
5252	6247
2162	1125
5146	707
9798	8176
8946	9241
3293	293
5949	7046
4672	4872
2644	6262
302	3232
541	2974
4702	4474
8974	1115
1594	1553
9521	739
1406	1655
8994	3714
5590	8075
9207	2794
3087	9480
9260	2399
1549	5345
66	9484
6903	7746
7320	1769
7925	272
1794	6600
9375	71
5580	3537
9886	7573
3824	1772
3726	6271
4089	6803
4888	3149
2014	9546
2516	9277
5468	6614
8644	9734
2104	3244
6123	785
5673	1428
6375	7767
7835	7178
87	4409
6215	4303
3595	2263
9802	2179
6019	269
7550	9810
101	2607
7392	1623
7281	2277
7069	6331
6253	9644
4583	9165
9463	2931
603	2927
7891	9427
8617	9754
556	7650
2620	867
6382	7082
6874	1472
1643	9300
2739	9631
7174	691
4038	4078
7563	6197
9837	6777
232	4554
7767	5535
9964	6602
3392	4648
8612	9453
5051	2518
2175	6451
7148	1258
763	2093
2513	7602
5529	457
5249	2579
2690	4880
4227	5276
2924	3229
2919	7506
2335	4217
7078	1043
3903	8116
8032	2682
9578	6013
7558	2704
2359	4943
6940	1181
2333	137
9291	3496
9497	2537
1583	897
2254	5276
2062	2213
9538	2213
8934	5712
331	2794
4378	9368
9345	6354
7522	1418
5575	798
4953	1403
6967	3791
5586	1732
8093	8955
2721	412
3434	9373
3148	3097
6594	3917
9292	4535
5724	2707
2530	3618
5741	8262
1158	3323
9514	8245
8860	979
785	8023
3392	7678
9668	3936
1107	1771
7367	686
1682	1020
3513	131
4620	2079
636	926
7579	5829
3829	7024
7739	6667
3489	2424
4018	5606
5678	5883
5885	4182
7546	7868
1899	3977
9007	8911
3407	90
401	474
4875	2329
6478	4497
7498	1790
243	9810
6950	291
1198	8081
3742	1520
4858	1274
1900	815
7064	6779
3436	182
5350	858
8104	5731
2764	7880
5123	584
4420	8388
7713	8686
3497	2114
7224	9073
7259	9118
5555	5870
6403	764
783	1785
5516	3488
5624	5113
319	9223
3465	8696
9800	9428
7154	8176
8588	102
8271	3085
252	3760
7768	9316
526	7182
5175	2137
6481	9751
4974	3162
7385	2651
2463	9291
5032	8636
7325	6664
7580	6150
2409	121
8891	3158
8475	4160
557	400
6528	725
4379	3152
9914	6889
2399	8663
8621	8691
6502	4333
7165	1797
7310	3899
6282	6321
6650	4910
7240	7378
4248	1382
6928	4948
7978	1908
9857	8554
5483	2266
7495	8864
5212	2062
452	2294
4541	5788
7854	4407
9329	2114
2761	4013
5480	6703
2178	7972
2874	6627
1807	5550
3504	6009
4483	2793
8519	9434
5766	7143
8740	4290
8991	7151
1683	8137
4922	8582
6659	2824
3667	8936
511	6841
435	6657
8523	7138
9241	4532
9989	6023
6139	3486
6633	9706
887	5608
207	6182
3634	5609
2521	4222
7712	8996
9341	4420
4063	7620
3732	9692
1291	9233
7249	4446
7872	8683
6453	9597
5322	6851
4791	5003
3438	4200
