1377	3912
7504	2846
5467	2789
3283	3923
8540	3205
897	4965
3894	9591
6879	4094
5885	6049
1237	4687
9255	7194
1299	4785
3598	8966
3239	6773
3239	2647
3292	7085
9808	667
1685	94
5302	2078
3846	3893
6949	7587
7325	8929
7144	5575
3042	2488
341	1397
8062	2040
4568	583
9130	1410
2237	7149
2931	8221
9748	9010
6577	313
2586	7156
5340	2568
9355	3537
6056	2368
4868	621
5300	8549
9216	5616
505	2971
1937	612
3950	9463
6246	8483
4341	7856
4355	2126
2774	9085
5305	5576
7620	4651
2439	1034
6404	9467
1468	9010
9274	6134
5424	2870
4052	6397
3169	9618
9813	2601
9384	345
5273	9374
7796	5545
5390	902
1115	8420
8012	8145
6052	5461
7734	4319
8113	4986
556	6105
3927	9139
5666	2563
5083	8032
4149	1648
5234	9169
5115	6066
4901	3010
5654	1551
9198	4008
941	5647
8341	1964
714	328
845	6384
5139	6168
9104	2177
9727	5858
6080	1416
7940	3694
7757	754
7839	6097
5512	2195
1745	3547
4839	6208
1402	3949
8432	9598
2138	2390
623	6241
7715	1637
5598	9226
3418	4379
6721	99
718	3855
8703	1755
9300	198
6604	266
407	2590
4916	6379
3211	6286
115	4853
8663	8581
4407	3514
6603	6897
2571	8117
2792	7538
3764	5073
7550	6934
1910	2717
1107	6973
8680	9643
5345	8541
3631	994
6473	1866
1658	1735
3348	3915
6506	919
8316	9894
6999	70
369	5460
2607	3082
4444	3178
8532	191
206	7327
9880	6993
1007	7374
341	4252
8057	1525
5115	947
4906	6971
8094	1140
7253	9809
3069	8051
4349	2770
524	3791
8648	8385
8827	1053
3772	6253
5415	5085
574	3405
4992	9973
81	4373
8538	1181
3207	4562
2596	1487
2530	9592
7333	859
2922	2302
7236	6555
8391	4538
9647	6446
5860	2973
2103	5996
4651	7313
7279	2181
5651	9313
5487	2359
9851	4349
3456	9263
2687	3445
8483	9755
8703	864
8617	40
9756	1616
5940	9164
2384	5823
903	6509
8482	3654
6943	905
2428	4696
655	9826
8351	7593
8241	9660
7329	3568
2325	2093
5079	6507
8932	1948
4929	9428
2323	3262
9091	590
425	4405
3939	5319
3529	7221
441	5647
6268	5749
7791	8745
2111	9532
7129	7083
7205	7619
6468	7092
2635	2638
6907	2916
8921	3604
8729	7179
5569	4448
3204	6034
5577	6829
2132	917
7717	9060
6565	9871
2166	9033
5440	344
4504	3211
7798	591
827	4861
2876	1004
693	9650
7815	6419
2112	4491
8339	5903
7160	9851
9903	7492
2388	7661
3012	4709
8958	790
2394	9950
7974	792
8608	2801
4798	5287
2877	2542
5080	8026
7499	656
9937	2664
4598	5788
718	2526
8961	1914
4943	3238
8704	5369
7256	5459
2826	808
4674	3662
1873	8237
9561	4537
8559	1972
2504	7440
9810	9733
1042	6182
1792	4510
1843	2401
8213	2287
6533	290
863	5213
7185	5037
9626	8940
520	1817
7216	6375
2804	562
3890	8723
5869	1728
9339	3447
8075	3962
1759	2603
8238	9729
4710	6399
3161	5209
4190	8945
5431	1178
9792	6890
9055	9893
2339	2913
1998	1967
3493	4199
9137	5628
1202	1854
4136	8711
5896	440
2537	6029
1929	4696
4772	1727
4482	8215
697	9632
3495	3359
196	4421
9813	3965
6267	9762
7429	621
7851	8265
8585	1278
6811	2737
8752	4607
4048	9446
6180	468
9253	936
8292	4762
5103	5576
9633	6283
706	4233
3331	8836
9952	256
9802	548
9046	6565
5877	6976
6947	2598
9659	6279
4459	6101
5446	8639
9946	8038
9537	3885
2140	8511
7995	390
4776	7148
7785	5655
2372	7360
8579	577
4070	7437
7502	4553
6541	7992
6989	8247
8015	2697
8778	503
9148	7249
1374	9284
4336	3854
6176	7743
4045	6608
5681	4328
8017	9968
4072	4915
8568	4488
3014	3281
2033	7671
575	7473
8502	2845
8305	1925
1682	6410
7625	8939
2257	9535
577	9717
4003	3510
2459	952
7084	7270
231	5229
9600	8825
5863	2315
248	145
376	7867
8670	9950
9164	7829
2189	3081
1916	314
9027	4090
6849	6635
2222	8111
719	6787
1734	9189
5784	699
3541	7032
3745	3443
5759	2821
1189	7261
5427	6906
8452	3924
3548	5526
8062	6625
6557	3483
8187	5976
966	5880
7785	2767
8803	670
303	5433
7840	6724
9455	1422
6529	55
8524	8158
4777	9423
6867	3323
6027	5237
8021	2067
6073	4894
5590	847
5074	1892
1410	3696
3045	2269
830	8168
8601	962
7171	6426
4953	1356
7090	5828
404	5567
430	6746
7674	4083
2805	6886
9804	6668
120	3982
2948	4205
9721	1841
8029	6234
9020	2533
7925	5139
2121	6342
3526	3223
192	3120
996	4345
709	8778
3445	7070
8055	1498
7167	6931
863	7351
2141	5566
5238	2734
9675	8954
7797	8086
9242	3327
6580	746
870	6865
1668	4093
9784	2856
1939	6814
9650	3769
7746	6593
6664	1869
6994	8523
2845	752
6452	9923
4320	7367
3039	6707
9490	107
854	8304
6409	1648
3611	5165
6753	1709
7691	7759
3216	6464
6700	8845
5275	7123
6666	1854
8162	8864
174	8262
8027	3930
2262	6272
3688	8912
1314	4158
1500	8283
7872	1202
3382	4953
8213	1102
3925	9271
1458	9627
5597	680
5066	3146
9427	9088
5956	8602
3438	2946
7213	3472
4632	3463
5672	6070
580	3362
4962	9949
5231	5845
4012	7568
4223	3851
3485	2500
4749	1156
51	4517
1405	2216
72	4707
7110	5235
2822	9836
4417	4336
7502	6784
4585	8927
7418	5068
5835	3379
8820	3507
4389	1501
3	6999
1931	4938
2628	8185
7049	6664
9871	2836
759	7010
1822	1468
5182	3515
6481	9506
1777	4241
7071	4417
521	8863
1694	1350
6440	466
1031	1254
5791	1013
2510	3893
2865	7780
4182	2069
417	1827
9173	5270
432	3198
9697	4261
495	9786
1092	6607
5111	7063
1846	773
4858	63
4013	7976
549	8130
7322	3610
9909	4376
3425	3562
9282	6071
6376	2429
8663	576
9079	2876
2476	3348
2696	3055
4903	7544
6521	7095
6065	84
8151	6106
6161	6194
1186	8023
377	2609
8220	8766
5889	3615
7067	9626
5412	6927
8790	7922
5412	1428
691	710
6655	8507
1462	1620
3147	2983
2062	5089
9655	9042
9963	6102
1754	6223
9470	9638
832	5634
7373	1462
5742	8399
6731	202
9883	8129
4337	1154
3977	7012
3961	3485
7245	9528
4956	9636
9351	1717
7614	8429
4212	469
4342	321
6295	4070
1714	6443
3611	2456
6562	4671
1788	5900
9363	1394
9130	5637
1197	4633
5995	7030
78	9506
2958	7070
9053	9256
2489	6496
9368	1118
7360	3274
6052	1267
6032	629
5727	6164
1902	651
6128	1055
6423	130
8919	1548
9349	5469
4939	643
3372	2069
8871	7975
9450	1525
6344	8362
5541	1611
2553	2176
5833	2886
2710	9970
7744	1552
8948	9888
9662	4590
1227	5557
5322	6026
9930	5892
9505	5658
3137	6330
4023	6035
6239	7799
4461	1647
2519	3037
6769	2103
7862	2852
9194	1365
491	7421
3326	569
3563	7627
8404	705
4930	9768
7916	698
9697	8950
8809	458
1027	5594
1518	3957
7885	8892
4852	8950
3502	1985
8567	599
8464	2443
6433	4835
6561	3617
3765	1193
2669	9578
6371	2672
5721	5615
4801	6463
2050	7672
6827	8219
2209	21
4907	2205
1300	2634
966	5905
2876	2421
8039	4234
5922	3330
9635	7621
9091	318
1920	4660
1229	2222
3804	2585
8996	1183
7325	5682
7491	6499
2947	8346
8448	1203
2826	5125
6473	1873
4044	333
4493	5049
4283	5608
4620	9949
8827	9353
1743	876
8890	4858
6025	3721
8113	3901
1100	8382
2176	5141
7830	252
6473	2599
9276	8334
6114	1982
9071	848
2416	8984
5167	5631
9535	3722
5652	4400
9428	2657
3918	8937
409	3717
6810	290
6394	2324
4768	1259
4755	8230
2687	8448
5826	4936
7952	3527
4565	7780
131	6833
8830	2629
6461	2033
3520	7643
6202	9543
3575	8706
5638	3903
5657	4518
6633	5379
1356	5574
6312	2104
348	4507
844	2863
6166	6533
874	5028
1578	1435
2134	9734
7887	4736
8424	1896
5048	4653
9350	317
2662	1174
2823	2660
6691	1924
1696	6099
9731	7139
6814	3370
159	5105
8715	4193
6973	9461
5905	4035
8332	6210
2601	9974
1597	4009
5301	5590
637	4236
5646	4108
8337	9672
4736	4349
5907	1323
7900	5079
124	3331
2810	2936
6032	7313
2047	4822
67	9229
899	8445
399	9715
8150	5772
9771	9144
2716	7242
2462	768
1403	9471
3820	3383
5414	8269
6259	3051
8921	8421
4261	6130
7536	1396
6625	9045
4272	6396
7713	6813
282	4046
6601	2912
532	796
1450	2850
4194	6256
3452	5167
7	19
5879	4672
6454	3201
1052	312
3779	3285
3958	2144
6988	4811
1514	69
1738	413
9050	2525
9083	5509
5920	8144
1358	2061
5334	6390
4768	8151
9163	3415
7287	7099
2776	1302
6975	6534
829	1071
8683	4394
488	5429
6619	5710
6990	5136
8455	4652
4036	6938
2539	8350
7640	630
1642	5009
4574	9536
9401	6397
8065	6921
7896	5849
4334	8106
7780	7849
7772	6929
1793	5493
8940	6591
8561	8347
2684	7104
241	3487
4102	7557
901	5567
4042	2868
9206	2176
3390	5039
8230	6643
453	2784
8605	8507
4952	1585
299	8282
9953	3991
7442	4598
7365	7727
4107	5693
1160	993
5138	5188
5131	8216
7021	6455
961	2495
8254	8351
5105	2110
3460	4789
1968	1931
251	1777
4547	9828
7550	3975
5829	9569
7444	9888
3933	1945
1996	125
4820	1983
8743	9968
3076	9326
7685	6817
4351	7514
6985	311
2627	1138
15	1380
4391	2007
459	9153
664	4806
670	2167
6363	3571
4837	7907
8967	7922
511	7552
1178	8754
2243	7617
8479	4712
6317	1478
15	4178
6206	9989
7402	5075
2368	4410
4179	4019
262	4303
1435	8851
4941	4799
8740	4711
4821	7524
845	5654
1511	7086
5203	5172
4881	2036
3155	3854
5936	9000
2851	6729
1218	4156
7400	2571
6256	3488
7279	2340
6937	5322
9356	6749
9151	8740
9499	5677
220	4959
6820	1919
4391	4246
1169	9337
6852	7109
7027	6162
5291	6715
9144	2449
977	3473
5186	3746
4300	6954
5968	7415
5573	8966
2820	3734
3208	10
5913	6843
7787	2233
2749	3135
5011	6516
8773	3400
2074	3196
1395	9959
4006	3889
9746	3147
6179	9780
7350	3976
7839	5133
2894	1260
1226	5737
7401	6626
3873	5701
2651	5614
7795	2397
7705	9834
1875	9399
3386	6479
9728	9043
9844	866
5507	7564
4610	2483
4855	4856
4443	9889
9764	1136
832	737
9177	9942
7446	5674
2101	8556
1493	5094
3546	2924
4535	8241
49	4597
1367	5336
6410	9420
98	3026
1231	6626
9959	2341
4672	9356
5392	4245
3048	6738
2600	7037
7228	9706
6956	2822
9215	8501
1074	3643
2965	9357
6233	2312
3367	1469
4086	4480
9909	8004
1262	7277
7060	206
7151	6157
8768	9994
7209	5117
6031	7412
3385	5672
7153	1291
4340	5095
3766	3796
3586	4104
8859	1436
4179	2601
3741	1920
8622	8862
706	2817
8181	6500
5100	4858
75	3911
9170	1538
7585	7487
7988	8259
1700	2812
1075	1703
5450	7512
1141	1431
7908	7629
804	3466
3139	9493
654	2422
5630	836
8521	7056
5321	275
8701	9742
5034	2320
9334	2872
7217	8719
4989	4383
845	6968
9477	9271
3133	1881
159	5121
6747	3181
4870	4342
1864	686
5898	4672
7910	2409
3822	4455
4931	3693
6801	9986
3436	7668
5211	9991
2388	4384
9870	5743
9288	8141
2629	4470
4170	7294
8783	5472
2824	5722
9770	1983
2372	1481
7366	2138
2163	6774
3112	7674
473	7035
405	5410
8463	4427
2486	7866
175	978
5763	5493
4433	3735
8020	4624
6421	3390
4687	8734
6548	842
8547	6601
2563	1204
2228	1517
3563	992
7483	4127
8889	1105
2308	9411
