1261.8442664810973	8832.589276368495
8777.131440313684	1116.969631820789
8771.199206011317	8819.861774568206
5779.7500034897885	3716.615698665573
1152.2168565336033	6320.425638551117
3853.611718165755	8826.51550520646
6408.1995391206665	4830.217295297898
3287.5206377230284	5481.308519377257
8796.591009863127	3759.3292470832093
1313.7988908874609	1134.697394743064
6249.976688444148	8922.868651926232
3899.7169432478577	1052.109527863434
8851.958590171258	6306.879904076882
1107.022848412519	3696.189168896137
6319.12137616537	1363.4272075288495
6897.760013748083	6390.49009775088
3927.9614634504965	6691.760961256028
3571.5112438676265	3316.0048418024585
6058.191812051996	6691.30629007184
